…
``` r
data("instacart")
instacart = 
  instacart |> 
  as_tibble()
```

``` r
instacart |> 
  count(aisle) |> 
  arrange(desc(n))
```

    ## # A tibble: 134 × 2
    ##    aisle                              n
    ##    <chr>                          <int>
    ##  1 fresh vegetables              150609
    ##  2 fresh fruits                  150473
    ##  3 packaged vegetables fruits     78493
    ##  4 yogurt                         55240
    ##  5 packaged cheese                41699
    ##  6 water seltzer sparkling water  36617
    ##  7 milk                           32644
    ##  8 chips pretzels                 31269
    ##  9 soy lactosefree                26240
    ## 10 bread                          23635
    ## # ℹ 124 more rows
…
- In 2002, which states were observed at 7 or more locations? 36
  locations consisting of: AZ, CO, CT, DE, FL, GA, HI, ID, IL, IN

``` r
brfss_df |> 
  filter(year == 2002) |> 
  group_by(locationabbr) |> 
  summarize(observations =n()) |> 
  filter(observations >= 7) 
```

    ## # A tibble: 36 × 2
    ##    locationabbr observations
    ##    <chr>               <int>
    ##  1 AZ                     10
    ##  2 CO                     20
    ##  3 CT                     35
    ##  4 DE                     15
    ##  5 FL                     35
    ##  6 GA                     15
    ##  7 HI                     20
    ##  8 ID                     10
    ##  9 IL                     15
    ## 10 IN                     10
    ## # ℹ 26 more rows
…
